<svg width="15" height="14" viewBox="0 0 15 14" fill="none" xmlns="http://www.w3.org/2000/svg">
<path d="M11.375 0V0.875H0V0H11.375ZM6.93848 3.5L6.48047 4.375H0V3.5H6.93848ZM0 7H5.10645L4.64844 7.875H0V7ZM10.3359 7H14.2188L6.86328 14H5.10645L7.18457 9.625H4.72363L8.38086 2.625H12.5645L10.3359 7ZM6.51465 13.125L12.0312 7.875H8.91406L11.1357 3.5H8.91406L6.16602 8.75H8.56543L6.4873 13.125H6.51465Z" fill="#737383"/>
</svg>
