<svg width="15" height="10" viewBox="0 0 15 10" fill="none" xmlns="http://www.w3.org/2000/svg">
<path d="M14.7142 0.625V9.375H0.714216V0.625H14.7142ZM1.69176 1.5L7.71422 4.51465L13.7367 1.5H1.69176ZM13.8392 8.5V2.42969L7.71422 5.48535L1.58922 2.42969V8.5H13.8392Z" fill="#333333"/>
</svg>
