<svg width="15" height="10" viewBox="0 0 15 10" fill="none" xmlns="http://www.w3.org/2000/svg">
<path d="M14.4286 0.625V9.375H0.428572V0.625H14.4286ZM13.5536 1.5H1.30357V8.5H13.5536V1.5Z" fill="#333333"/>
</svg>
