{
  "Video": {
    "icon": "movie",
    "label": "Video",
    "name": "Video"
  },
  "Action Text": {
    "icon": "action_text",
    "label": "Action Text",
    "name": "Action Text"
  },
  "Title": {
    "icon": "title",
    "label": "Title",
    "name": "Title"
  },
  "Image": {
    "icon": "image_",
    "label": "Image",
    "name": "Image"
  },
  "Separator": {
    "icon": "separator",
    "label": "Separator",
    "name": "Separator"
  },
  "Button": {
    "icon": "ok",
    "label": "Button",
    "name": "Button"
  },
  "Map": {
    "icon": "map_pointer",
    "label": "Map",
    "name": "Map"
  },
  "Link": {
    "icon": "link",
    "label": "Link",
    "name": "Link"
  },
  "Phone": {
    "icon": "phone_",
    "label": "Phone",
    "name": "Phone"
  },
  "Comments": {
    "icon": "comment",
    "label": "Comments",
    "name": "Comments"
  },
  "Text Entry": {
    "icon": "text_entry",
    "label": "Text Entry",
    "name": "Text Entry"
  },
  "Long Text": {
    "icon": "text",
    "label": "Long Text",
    "name": "Long Text"
  },
  "Notes": {
    "icon": "notes",
    "label": "Notes",
    "name": "Notes"
  },
  "Number Entry": {
    "icon": "number_entry",
    "label": "Number Entry",
    "name": "Number Entry"
  },
  "Tags": {
    "icon": "tags",
    "label": "Tags",
    "name": "Tags"
  },
  "Date": {
    "icon": "date",
    "label": "Date",
    "name": "Date"
  },
  "Date Time": {
    "icon": "date",
    "label": "Date",
    "name": "Date Time"
  },
  "Item ID": {
    "icon": "pin",
    "label": "Item ID",
    "name": "Item ID"
  },
  "People": {
    "icon": "contact",
    "label": "People",
    "name": "People"
  },
  "Progress Bar": {
    "icon": "progress",
    "label": "Progress Bar",
    "name": "Progress Bar"
  },
  "Timeline": {
    "icon": "timeline",
    "label": "Timeline",
    "name": "Timeline"
  },
  "World Clock": {
    "icon": "clock",
    "label": "World Clock",
    "name": "World Clock"
  },
  "Status": {
    "icon": "status",
    "label": "Status",
    "name": "Status"
  },
  "Vote": {
    "icon": "vote",
    "label": "Vote",
    "name": "Vote"
  },
  "Rating": {
    "icon": "rating",
    "label": "Rating",
    "name": "Rating"
  },
  "Creation Log": {
    "icon": "todo",
    "label": "Creation Log",
    "name": "Creation Log"
  },
  "Last Updated": {
    "icon": "reload_",
    "label": "Last Updated",
    "name": "Last Updated"
  },
  "Text": {
    "icon": "action_text",
    "label": "Text",
    "name": "Text"
  },
  "Rich Text": {
    "icon": "rich_text",
    "label": "Rich Text",
    "name": "Rich Text"
  },
  "Inline List": {
    "icon": "list_",
    "label": "Inline List",
    "name": "Inline List"
  }
}
