<svg width="22" height="22" viewBox="0 0 22 22" fill="none" xmlns="http://www.w3.org/2000/svg">
<path d="M12.0664 7.75V5.56641H9.93359V7.75H12.0664ZM12.0664 16.4336V9.93359H9.93359V16.4336H12.0664ZM3.33203 3.38281C5.46484 1.25 8.02083 0.183594 11 0.183594C13.9792 0.183594 16.5182 1.25 18.6172 3.38281C20.75 5.48177 21.8164 8.02083 21.8164 11C21.8164 13.9792 20.75 16.5352 18.6172 18.668C16.5182 20.7669 13.9792 21.8164 11 21.8164C8.02083 21.8164 5.46484 20.7669 3.33203 18.668C1.23307 16.5352 0.183594 13.9792 0.183594 11C0.183594 8.02083 1.23307 5.48177 3.33203 3.38281Z" fill="#F62765"/>
</svg>
