<svg width="20" height="20" viewBox="0 0 20 20" fill="none" xmlns="http://www.w3.org/2000/svg">
<path d="M12.5 11H7.5C7.22386 11 7 11.2239 7 11.5C7 11.7761 7.22386 12 7.5 12H12.5C12.7761 12 13 11.7761 13 11.5C13 11.2239 12.7761 11 12.5 11Z" fill="black"/>
<path d="M18 1H2C1.44772 1 1 1.44772 1 2V18C1 18.5523 1.44772 19 2 19H18C18.5523 19 19 18.5523 19 18V2C19 1.44772 18.5523 1 18 1Z" stroke="black" stroke-width="2"/>
<path d="M13 8H7C6.44772 8 6 8.44772 6 9C6 9.55228 6.44772 10 7 10H13C13.5523 10 14 9.55228 14 9C14 8.44772 13.5523 8 13 8Z" fill="black"/>
</svg>
<svg width="95" height="21" viewBox="0 0 95 21" fill="none" xmlns="http://www.w3.org/2000/svg" xmlns:xlink="http://www.w3.org/1999/xlink">
<rect width="95" height="21" fill="url(#pattern0)"/>
<defs>
