<svg width="18" height="18" viewBox="0 0 18 18" fill="none" xmlns="http://www.w3.org/2000/svg">
<path fill-rule="evenodd" clip-rule="evenodd" d="M0 1C0 0.44772 0.44772 0 1 0H17C17.5523 0 18 0.44772 18 1V11C18 11.5523 17.5523 12 17 12H1C0.44772 12 0 11.5523 0 11V1ZM0 14C0 13.4477 0.44772 13 1 13H11C11.5523 13 12 13.4477 12 14C12 14.5523 11.5523 15 11 15H1C0.44772 15 0 14.5523 0 14ZM1 16C0.44772 16 0 16.4477 0 17C0 17.5523 0.44772 18 1 18H7C7.5523 18 8 17.5523 8 17C8 16.4477 7.5523 16 7 16H1Z" fill="black"/>
</svg>
