<svg width="20" height="20" viewBox="0 0 20 20" fill="none" xmlns="http://www.w3.org/2000/svg">
<path d="M1 2V18C1 18.5523 1.44772 19 2 19H18C18.5523 19 19 18.5523 19 18V2C19 1.44772 18.5523 1 18 1H2C1.44772 1 1 1.44772 1 2Z" stroke="black" stroke-width="2"/>
<path d="M17 17V13L13 17H17Z" fill="black"/>
</svg>
