<svg width="18" height="18" viewBox="0 0 18 18" fill="none" xmlns="http://www.w3.org/2000/svg">
<path d="M9 0C9.82617 0 10.623 0.108398 11.3906 0.325195C12.1582 0.536133 12.876 0.837891 13.5439 1.23047C14.2119 1.61719 14.8184 2.08594 15.3633 2.63672C15.9141 3.18164 16.3828 3.78809 16.7695 4.45605C17.1621 5.12402 17.4639 5.8418 17.6748 6.60938C17.8916 7.37695 18 8.17383 18 9C18 9.82617 17.8916 10.623 17.6748 11.3906C17.4639 12.1582 17.1621 12.876 16.7695 13.5439C16.3828 14.2119 15.9141 14.8213 15.3633 15.3721C14.8184 15.917 14.2119 16.3857 13.5439 16.7783C12.876 17.165 12.1582 17.4668 11.3906 17.6836C10.623 17.8945 9.82617 18 9 18C8.17383 18 7.37695 17.8945 6.60938 17.6836C5.8418 17.4668 5.12402 17.165 4.45605 16.7783C3.78809 16.3857 3.17871 15.917 2.62793 15.3721C2.08301 14.8213 1.61426 14.2119 1.22168 13.5439C0.834961 12.876 0.533203 12.1611 0.316406 11.3994C0.105469 10.6318 0 9.83203 0 9C0 8.17383 0.105469 7.37695 0.316406 6.60938C0.533203 5.8418 0.834961 5.12402 1.22168 4.45605C1.61426 3.78809 2.08301 3.18164 2.62793 2.63672C3.17871 2.08594 3.78809 1.61719 4.45605 1.23047C5.12402 0.837891 5.83887 0.536133 6.60059 0.325195C7.36816 0.108398 8.16797 0 9 0ZM9 16.875C9.7207 16.875 10.415 16.7812 11.083 16.5938C11.7568 16.4062 12.3838 16.1426 12.9639 15.8027C13.5498 15.457 14.083 15.0439 14.5635 14.5635C15.0439 14.083 15.4541 13.5527 15.7939 12.9727C16.1396 12.3867 16.4062 11.7598 16.5938 11.0918C16.7812 10.4238 16.875 9.72656 16.875 9C16.875 8.2793 16.7812 7.58496 16.5938 6.91699C16.4062 6.24316 16.1396 5.61621 15.7939 5.03613C15.4541 4.4502 15.0439 3.91699 14.5635 3.43652C14.083 2.95605 13.5498 2.5459 12.9639 2.20605C12.3838 1.86035 11.7568 1.59375 11.083 1.40625C10.415 1.21875 9.7207 1.125 9 1.125C8.2793 1.125 7.58203 1.21875 6.9082 1.40625C6.24023 1.59375 5.61328 1.86035 5.02734 2.20605C4.44727 2.5459 3.91699 2.95605 3.43652 3.43652C2.95605 3.91699 2.54297 4.4502 2.19727 5.03613C1.85742 5.61621 1.59375 6.24316 1.40625 6.91699C1.21875 7.58496 1.125 8.2793 1.125 9C1.125 9.7207 1.21875 10.418 1.40625 11.0918C1.59375 11.7598 1.85742 12.3867 2.19727 12.9727C2.54297 13.5527 2.95605 14.083 3.43652 14.5635C3.91699 15.0439 4.44727 15.457 5.02734 15.8027C5.61328 16.1426 6.24023 16.4062 6.9082 16.5938C7.57617 16.7812 8.27344 16.875 9 16.875ZM9 3.09375C9.54492 3.09375 10.0664 3.16406 10.5645 3.30469C11.0684 3.44531 11.54 3.64453 11.9795 3.90234C12.4189 4.16016 12.8174 4.46777 13.1748 4.8252C13.5322 5.18262 13.8398 5.58105 14.0977 6.02051C14.3555 6.45996 14.5547 6.93164 14.6953 7.43555C14.8359 7.93359 14.9062 8.45508 14.9062 9C14.9062 9.54492 14.8359 10.0693 14.6953 10.5732C14.5547 11.0713 14.3555 11.54 14.0977 11.9795C13.8398 12.4189 13.5322 12.8174 13.1748 13.1748C12.8174 13.5322 12.4189 13.8398 11.9795 14.0977C11.54 14.3555 11.0684 14.5547 10.5645 14.6953C10.0664 14.8359 9.54492 14.9062 9 14.9062C8.45508 14.9062 7.93066 14.8359 7.42676 14.6953C6.92871 14.5547 6.45996 14.3555 6.02051 14.0977C5.58105 13.8398 5.18262 13.5322 4.8252 13.1748C4.46777 12.8174 4.16016 12.4189 3.90234 11.9795C3.64453 11.54 3.44531 11.0713 3.30469 10.5732C3.16406 10.0693 3.09375 9.54492 3.09375 9C3.09375 8.45508 3.16406 7.93359 3.30469 7.43555C3.44531 6.93164 3.64453 6.45996 3.90234 6.02051C4.16016 5.58105 4.46777 5.18262 4.8252 4.8252C5.18262 4.46777 5.58105 4.16016 6.02051 3.90234C6.45996 3.64453 6.92871 3.44531 7.42676 3.30469C7.93066 3.16406 8.45508 3.09375 9 3.09375Z" fill="#333333"/>
</svg>
