<svg width="14" height="14" viewBox="0 0 14 14" fill="none" xmlns="http://www.w3.org/2000/svg">
<path d="M9.625 3.5H13.125V7H12.25V4.99707L8.3125 8.92773L6.5625 7.17773L1.75 11.9971V12.25H13.125V13.125H0.875V0.875H1.75V10.7529L6.5625 5.94727L8.3125 7.69727L11.6279 4.375H9.625V3.5Z" fill="#737383"/>
</svg>
