<svg width="30" height="29" viewBox="0 0 30 29" fill="none" xmlns="http://www.w3.org/2000/svg">
<path d="M21.4179 8.50543L22.6547 9.74227L12.3614 20.0356L7.34529 15.0195L8.58214 13.7826L12.3614 17.5619L21.4179 8.50543ZM15 0.328493C16.2918 0.328493 17.5378 0.497987 18.738 0.836975C19.9382 1.1668 21.0606 1.63863 22.105 2.25248C23.1494 2.85716 24.0977 3.5901 24.9497 4.45132C25.811 5.30337 26.5439 6.25162 27.1486 7.29606C27.7624 8.34051 28.2343 9.46284 28.5641 10.663C28.9031 11.8632 29.0726 13.1092 29.0726 14.4011C29.0726 15.6929 28.9031 16.9389 28.5641 18.1391C28.2343 19.3393 27.7624 20.4616 27.1486 21.5061C26.5439 22.5505 25.811 23.5033 24.9497 24.3646C24.0977 25.2166 23.1494 25.9495 22.105 26.5634C21.0606 27.1681 19.9382 27.6399 18.738 27.9789C17.5378 28.3087 16.2918 28.4736 15 28.4736C13.7082 28.4736 12.4622 28.3087 11.262 27.9789C10.0618 27.6399 8.93945 27.1681 7.895 26.5634C6.85055 25.9495 5.89772 25.2166 5.03651 24.3646C4.18446 23.5033 3.45151 22.5505 2.83767 21.5061C2.23299 20.4616 1.76116 19.3439 1.42217 18.1528C1.09234 16.9526 0.92743 15.702 0.92743 14.4011C0.92743 13.1092 1.09234 11.8632 1.42217 10.663C1.76116 9.46284 2.23299 8.34051 2.83767 7.29606C3.45151 6.25162 4.18446 5.30337 5.03651 4.45132C5.89772 3.5901 6.85055 2.85716 7.895 2.25248C8.93945 1.63863 10.0572 1.1668 11.2482 0.836975C12.4484 0.497987 13.699 0.328493 15 0.328493ZM15 26.7146C16.1269 26.7146 17.2126 26.568 18.257 26.2748C19.3106 25.9816 20.291 25.5693 21.198 25.0379C22.1142 24.4974 22.9479 23.8515 23.6992 23.1002C24.4504 22.3489 25.0918 21.5198 25.6231 20.6128C26.1637 19.6966 26.5806 18.7163 26.8737 17.6718C27.1669 16.6274 27.3135 15.5371 27.3135 14.4011C27.3135 13.2742 27.1669 12.1885 26.8737 11.144C26.5806 10.0904 26.1637 9.11011 25.6231 8.20309C25.0918 7.2869 24.4504 6.45318 23.6992 5.70191C22.9479 4.95064 22.1142 4.30931 21.198 3.77792C20.291 3.23737 19.3106 2.82051 18.257 2.52733C17.2126 2.23415 16.1269 2.08756 15 2.08756C13.8731 2.08756 12.7828 2.23415 11.7292 2.52733C10.6848 2.82051 9.70446 3.23737 8.78828 3.77792C7.88126 4.30931 7.05211 4.95064 6.30084 5.70191C5.54957 6.45318 4.90366 7.2869 4.36312 8.20309C3.83173 9.11011 3.41945 10.0904 3.12627 11.144C2.83309 12.1885 2.6865 13.2742 2.6865 14.4011C2.6865 15.528 2.83309 16.6182 3.12627 17.6718C3.41945 18.7163 3.83173 19.6966 4.36312 20.6128C4.90366 21.5198 5.54957 22.3489 6.30084 23.1002C7.05211 23.8515 7.88126 24.4974 8.78828 25.0379C9.70446 25.5693 10.6848 25.9816 11.7292 26.2748C12.7737 26.568 13.8639 26.7146 15 26.7146Z" fill="white"/>
</svg>
