<svg width="21" height="19" viewBox="0 0 21 19" fill="none" xmlns="http://www.w3.org/2000/svg">
<path d="M17.0625 7.53125L21 9.5L17.0625 11.4688L21 13.4375L10.5 18.6875L0 13.4375L3.9375 11.4688L0 9.5L3.9375 7.53125L0 5.5625L10.5 0.3125L21 5.5625L17.0625 7.53125ZM2.93262 5.5625L10.5 9.34619L18.0674 5.5625L10.5 1.77881L2.93262 5.5625ZM18.0674 13.4375L15.5962 12.207L10.5 14.75L5.40381 12.207L2.93262 13.4375L10.5 17.2212L18.0674 13.4375ZM10.5 13.2837L18.0674 9.5L15.5962 8.26953L10.5 10.8125L5.40381 8.26953L2.93262 9.5L10.5 13.2837Z" fill="white"/>
</svg>
