<svg width="2" height="50" viewBox="0 0 2 50" fill="none" xmlns="http://www.w3.org/2000/svg">
<rect x="0.000488281" y="50" width="50" height="1.05206" transform="rotate(-90 0.000488281 50)" fill="#737383"/>
</svg>
