<svg width="16" height="12" viewBox="0 0 16 12" fill="none" xmlns="http://www.w3.org/2000/svg">
<path d="M0.5 0.99999C0.5 0.539756 0.8731 0.166656 1.33333 0.166656H6.33334C6.79359 0.166656 7.16667 0.539756 7.16667 0.99999V8.49999H0.5V0.99999Z" fill="black"/>
<path d="M8.83301 0.99999C8.83301 0.539756 9.20609 0.166656 9.66634 0.166656H14.6663C15.1266 0.166656 15.4997 0.539756 15.4997 0.99999V8.49999H8.83301V0.99999Z" fill="black"/>
<path d="M0.5 8.5H7.16667V11C7.16667 11.4603 6.79359 11.8333 6.33334 11.8333H1.33333C0.8731 11.8333 0.5 11.4603 0.5 11V8.5Z" fill="black" fill-opacity="0.5"/>
<path d="M8.83301 8.5H15.4997V11C15.4997 11.4603 15.1266 11.8333 14.6663 11.8333H9.66634C9.20609 11.8333 8.83301 11.4603 8.83301 11V8.5Z" fill="black" fill-opacity="0.5"/>
</svg>
