<svg width="18" height="16" viewBox="0 0 18 16" fill="none" xmlns="http://www.w3.org/2000/svg">
<path d="M16.3125 5.625C16.541 5.625 16.7578 5.66895 16.9629 5.75684C17.168 5.84473 17.3467 5.96484 17.499 6.11719C17.6572 6.26953 17.7803 6.44824 17.8682 6.65332C17.9561 6.8584 18 7.07812 18 7.3125C18 7.5 17.9707 7.67871 17.9121 7.84863L15.6621 14.5986C15.6035 14.7686 15.5215 14.9268 15.416 15.0732C15.3105 15.2139 15.1875 15.334 15.0469 15.4336C14.9062 15.5332 14.751 15.6123 14.5811 15.6709C14.417 15.7236 14.2441 15.75 14.0625 15.75H9.5625C8.51367 15.75 7.50293 15.5479 6.53027 15.1436C6.1084 14.9736 5.68359 14.8447 5.25586 14.7568C4.83398 14.6689 4.39453 14.625 3.9375 14.625H0V6.75H3.66504C4.0459 6.75 4.40332 6.67969 4.7373 6.53906C5.07715 6.39844 5.38184 6.19336 5.65137 5.92383L11.1182 0.46582C11.2646 0.319336 11.4111 0.205078 11.5576 0.123047C11.7041 0.0410156 11.8828 0 12.0938 0C12.2871 0 12.4688 0.0380859 12.6387 0.114258C12.8086 0.18457 12.958 0.28418 13.0869 0.413086C13.2158 0.541992 13.3154 0.691406 13.3857 0.861328C13.4619 1.03125 13.5 1.21289 13.5 1.40625C13.5 1.88086 13.4473 2.33496 13.3418 2.76855C13.2363 3.19629 13.0811 3.62109 12.876 4.04297C12.7588 4.29492 12.6592 4.55273 12.5771 4.81641C12.4951 5.07422 12.4395 5.34375 12.4102 5.625H16.3125ZM14.0625 14.625C14.1797 14.625 14.2881 14.5898 14.3877 14.5195C14.4873 14.4492 14.5576 14.3555 14.5986 14.2383C14.6279 14.1562 14.6807 13.998 14.7568 13.7637C14.8389 13.5293 14.9355 13.248 15.0469 12.9199C15.1582 12.5859 15.2812 12.2227 15.416 11.8301C15.5508 11.4316 15.6855 11.0303 15.8203 10.626C15.9551 10.2217 16.084 9.8291 16.207 9.44824C16.3359 9.06152 16.4502 8.71582 16.5498 8.41113C16.6494 8.10059 16.7285 7.84863 16.7871 7.65527C16.8457 7.45605 16.875 7.3418 16.875 7.3125C16.875 7.16016 16.8193 7.02832 16.708 6.91699C16.5967 6.80566 16.4648 6.75 16.3125 6.75H11.25C11.25 6.43945 11.2559 6.15234 11.2676 5.88867C11.2852 5.61914 11.3145 5.3584 11.3555 5.10645C11.4023 4.85449 11.4668 4.60254 11.5488 4.35059C11.6309 4.09863 11.7393 3.83203 11.874 3.55078C12.0381 3.21094 12.1611 2.86523 12.2432 2.51367C12.3311 2.15625 12.375 1.78711 12.375 1.40625C12.375 1.32422 12.3486 1.25684 12.2959 1.2041C12.2432 1.15137 12.1758 1.125 12.0938 1.125C12.0586 1.125 12.0264 1.13965 11.9971 1.16895C11.9736 1.19238 11.9502 1.21582 11.9268 1.23926L6.45117 6.72363C6.26367 6.91113 6.06152 7.0752 5.84473 7.21582C5.63379 7.35645 5.4082 7.47656 5.16797 7.57617C4.69922 7.77539 4.19824 7.875 3.66504 7.875H1.125V13.5H3.9375C4.98047 13.5 5.99121 13.7021 6.96973 14.1064C7.81348 14.4521 8.67773 14.625 9.5625 14.625H14.0625Z" fill="#333333"/>
</svg>
