<svg width="24" height="22" viewBox="0 0 24 22" fill="none" xmlns="http://www.w3.org/2000/svg">
<path d="M22.1367 1.94238C22.5508 2.35645 22.8945 2.80957 23.168 3.30176C23.4492 3.79395 23.6562 4.30566 23.7891 4.83691C23.9297 5.36816 24 5.91113 24 6.46582C24 7.0127 23.9297 7.55176 23.7891 8.08301C23.6562 8.60645 23.4492 9.11426 23.168 9.60645C22.8945 10.0986 22.5508 10.5518 22.1367 10.9658L12 21.0908L1.86328 10.9658C1.44922 10.5518 1.10156 10.0986 0.820312 9.60645C0.546875 9.11426 0.339844 8.60645 0.199219 8.08301C0.0664062 7.55176 0 7.0127 0 6.46582C0 5.91113 0.0664062 5.36816 0.199219 4.83691C0.339844 4.30566 0.546875 3.79395 0.820312 3.30176C1.10156 2.80957 1.44922 2.35645 1.86328 1.94238C2.47266 1.34082 3.16406 0.879883 3.9375 0.55957C4.71094 0.239258 5.52344 0.0791016 6.375 0.0791016C7.22656 0.0791016 8.03906 0.239258 8.8125 0.55957C9.58594 0.879883 10.2773 1.34082 10.8867 1.94238L12 3.06738L13.1133 1.94238C13.7227 1.34082 14.4141 0.879883 15.1875 0.55957C15.9609 0.239258 16.7734 0.0791016 17.625 0.0791016C18.4766 0.0791016 19.2891 0.239258 20.0625 0.55957C20.8359 0.879883 21.5273 1.34082 22.1367 1.94238Z" fill="#F62765"/>
</svg>
