<svg width="48" height="72" viewBox="0 0 48 72" fill="none" xmlns="http://www.w3.org/2000/svg">
<path d="M36.3404 59.1812C36.3266 58.3009 36.2088 57.4524 35.987 56.6358L32.1839 29.8373L27.9615 -6.57384e-05L22.2033 29.5565L16.9715 56.0984C16.7034 56.8939 16.5373 57.7437 16.4651 58.6219C16.4451 58.7421 16.4591 58.8805 16.439 59.0008C16.447 59.0269 16.429 59.0609 16.437 59.087C16.3439 64.5371 20.6675 69.0905 26.1177 69.247C31.5678 69.4034 36.1072 65.1022 36.3123 59.6464C36.3043 59.6203 36.3223 59.5862 36.3143 59.5601C36.3423 59.466 36.3283 59.3276 36.3404 59.1812Z" fill="#333333"/>
</svg>
