<svg width="21" height="21" viewBox="0 0 21 21" fill="none" xmlns="http://www.w3.org/2000/svg">
<path d="M21 0V21H0V0H21ZM19.6875 1.3125H13.125V6.5625H19.6875V1.3125ZM13.125 13.125H19.6875V7.875H13.125V13.125ZM1.3125 1.3125V13.125H11.8125V1.3125H1.3125ZM1.3125 19.6875H7.875V14.4375H1.3125V19.6875ZM19.6875 19.6875V14.4375H9.1875V19.6875H19.6875Z" fill="white"/>
</svg>
