<svg width="24" height="23" viewBox="0 0 24 23" fill="none" xmlns="http://www.w3.org/2000/svg">
<path d="M0 16.5V12H4.5V16.5H0ZM1.5 13.5V15H3V13.5H1.5ZM0 10.5V6H4.5V10.5H0ZM1.5 7.5V9H3V7.5H1.5ZM0 4.5V0H4.5V4.5H0ZM1.5 1.5V3H3V1.5H1.5ZM7.5 9V7.5H21V9H7.5ZM18 13.5V15H7.5V13.5H18ZM7.5 1.5H24V3H7.5V1.5ZM0 22.5V18H4.5V22.5H0ZM1.5 19.5V21H3V19.5H1.5ZM7.5 21V19.5H21V21H7.5Z" fill="#333333"/>
</svg>
