<svg width="14" height="10" viewBox="0 0 14 10" fill="none" xmlns="http://www.w3.org/2000/svg">
<path d="M14 0.625V9.375H0V0.625H14ZM0.977539 1.5L7 4.51465L13.0225 1.5H0.977539ZM13.125 8.5V2.42969L7 5.48535L0.875 2.42969V8.5H13.125Z" fill="#737383"/>
</svg>
