<svg width="32" height="33" viewBox="0 0 32 33" fill="none" xmlns="http://www.w3.org/2000/svg">
<path d="M25.714 6.0199H4.43353C3.45412 6.0199 2.66016 6.81386 2.66016 7.79327V23.7536C2.66016 24.733 3.45412 25.527 4.43353 25.527H25.714C26.6934 25.527 27.4874 24.733 27.4874 23.7536V7.79327C27.4874 6.81386 26.6934 6.0199 25.714 6.0199Z" fill="white"/>
<path d="M24.8274 9.56665H5.32028C4.83058 9.56665 4.43359 9.96363 4.43359 10.4533C4.43359 10.943 4.83058 11.34 5.32028 11.34H24.8274C25.3171 11.34 25.714 10.943 25.714 10.4533C25.714 9.96363 25.3171 9.56665 24.8274 9.56665Z" fill="black"/>
<path d="M17.7339 16.66H5.32028C4.83058 16.66 4.43359 17.057 4.43359 17.5467C4.43359 18.0364 4.83058 18.4334 5.32028 18.4334H17.7339C18.2236 18.4334 18.6206 18.0364 18.6206 17.5467C18.6206 17.057 18.2236 16.66 17.7339 16.66Z" fill="black"/>
<path d="M24.8274 13.1133H5.32028C4.83058 13.1133 4.43359 13.5103 4.43359 14C4.43359 14.4897 4.83058 14.8867 5.32028 14.8867H24.8274C25.3171 14.8867 25.714 14.4897 25.714 14C25.714 13.5103 25.3171 13.1133 24.8274 13.1133Z" fill="black"/>
<path d="M24.0774 16.0595C24.3741 15.7628 24.7764 15.5961 25.196 15.5961C25.4038 15.5961 25.6095 15.637 25.8014 15.7165C25.9933 15.796 26.1677 15.9125 26.3147 16.0595C26.4616 16.2064 26.5781 16.3807 26.6575 16.5727C26.7371 16.7646 26.778 16.9703 26.778 17.1781C26.778 17.3858 26.7371 17.5916 26.6575 17.7834C26.5781 17.9754 26.4616 18.1498 26.3147 18.2966L16.9928 27.6186L14.0098 28.3643L14.7555 25.3814L24.0774 16.0595Z" fill="white"/>
<path fill-rule="evenodd" clip-rule="evenodd" d="M18.1217 28.7471C17.9172 28.9516 17.6608 29.0967 17.3802 29.1669L14.3972 29.9126C13.8533 30.0487 13.278 29.8892 12.8815 29.4929C12.4852 29.0964 12.3257 28.5211 12.4618 27.9772L13.2075 24.9942C13.2777 24.7136 13.4228 24.4572 13.6273 24.2527L22.9492 14.9308C23.5452 14.3348 24.3536 14 25.1964 14C25.6137 14 26.027 14.0822 26.4125 14.2419C26.7981 14.4016 27.1485 14.6358 27.4436 14.9308C27.7386 15.2259 27.9728 15.5763 28.1325 15.9619C28.2922 16.3474 28.3744 16.7607 28.3744 17.178C28.3744 17.5953 28.2922 18.0086 28.1325 18.3941C27.9728 18.7798 27.7386 19.1301 27.4436 19.4252L18.1217 28.7471ZM14.7559 25.3812L24.0778 16.0594C24.3745 15.7627 24.7769 15.596 25.1964 15.596C25.4042 15.596 25.6099 15.6369 25.8018 15.7164C25.9937 15.796 26.1682 15.9125 26.315 16.0594C26.4619 16.2063 26.5784 16.3807 26.658 16.5726C26.7375 16.7645 26.7784 16.9702 26.7784 17.178C26.7784 17.3857 26.7375 17.5914 26.658 17.7834C26.5784 17.9754 26.4619 18.1498 26.315 18.2966L16.9932 27.6185L14.0101 28.3643L14.7559 25.3812Z" fill="black"/>
<path fill-rule="evenodd" clip-rule="evenodd" d="M16.7788 27.9894L14.3848 25.5954L15.2312 24.749L17.6252 27.143L16.7788 27.9894Z" fill="black"/>
</svg>
