<svg width="17" height="16" viewBox="0 0 17 16" fill="none" xmlns="http://www.w3.org/2000/svg">
<path d="M13.415 9.47656C13.6442 9.47656 13.863 9.52083 14.0713 9.60938C14.2848 9.69271 14.4723 9.8151 14.6338 9.97656L16.3525 11.6953C16.514 11.8568 16.6364 12.0443 16.7197 12.2578C16.8083 12.4661 16.8525 12.6849 16.8525 12.9141C16.8525 13.1432 16.8083 13.3646 16.7197 13.5781C16.6364 13.7865 16.514 13.9714 16.3525 14.1328L16.2432 14.2422C15.9619 14.5234 15.7041 14.7734 15.4697 14.9922C15.2354 15.2109 14.9906 15.3958 14.7354 15.5469C14.4801 15.6927 14.1963 15.8047 13.8838 15.8828C13.5713 15.9609 13.1989 16 12.7666 16C12.1156 16 11.4463 15.8984 10.7588 15.6953C10.0713 15.4922 9.38639 15.2109 8.7041 14.8516C8.02702 14.4922 7.36035 14.0651 6.7041 13.5703C6.05306 13.0755 5.43587 12.5365 4.85254 11.9531C4.27441 11.3646 3.74056 10.7448 3.25098 10.0938C2.76139 9.4375 2.33952 8.77083 1.98535 8.09375C1.63118 7.41146 1.35514 6.73177 1.15723 6.05469C0.95931 5.3776 0.860352 4.72135 0.860352 4.08594C0.860352 3.65365 0.89681 3.28385 0.969727 2.97656C1.04785 2.66927 1.15983 2.38802 1.30566 2.13281C1.45671 1.8776 1.639 1.63542 1.85254 1.40625C2.07129 1.17188 2.32129 0.914062 2.60254 0.632812L2.72754 0.507812C2.889 0.346354 3.07389 0.221354 3.28223 0.132812C3.49056 0.0442708 3.71191 0 3.94629 0C4.17546 0 4.39421 0.0442708 4.60254 0.132812C4.81608 0.221354 5.00358 0.346354 5.16504 0.507812L6.88379 2.22656C7.04525 2.38802 7.16764 2.57552 7.25098 2.78906C7.33952 2.9974 7.38379 3.21615 7.38379 3.44531C7.38379 3.67448 7.34473 3.88021 7.2666 4.0625C7.18848 4.23958 7.09212 4.40104 6.97754 4.54688C6.86296 4.69271 6.73535 4.82552 6.59473 4.94531C6.45931 5.0651 6.33431 5.18229 6.21973 5.29688C6.10514 5.41146 6.00879 5.52865 5.93066 5.64844C5.85254 5.76302 5.81348 5.88802 5.81348 6.02344C5.81348 6.22135 5.88379 6.39062 6.02441 6.53125L10.3291 10.8359C10.4697 10.9766 10.639 11.0469 10.8369 11.0469C10.9723 11.0469 11.0973 11.0078 11.2119 10.9297C11.3317 10.8516 11.4489 10.7552 11.5635 10.6406C11.6781 10.526 11.7952 10.401 11.915 10.2656C12.0348 10.125 12.1676 9.9974 12.3135 9.88281C12.4593 9.76823 12.6208 9.67188 12.7979 9.59375C12.9801 9.51562 13.1859 9.47656 13.415 9.47656ZM12.7666 15C13.1416 15 13.4541 14.9661 13.7041 14.8984C13.9593 14.8255 14.1885 14.724 14.3916 14.5938C14.5947 14.4583 14.7926 14.2917 14.9854 14.0938C15.1781 13.8958 15.3994 13.6719 15.6494 13.4219C15.79 13.2812 15.8604 13.112 15.8604 12.9141C15.8604 12.8203 15.8213 12.7109 15.7432 12.5859C15.6702 12.4557 15.5739 12.3203 15.4541 12.1797C15.3343 12.0391 15.1989 11.8958 15.0479 11.75C14.902 11.599 14.7562 11.4583 14.6104 11.3281C14.4697 11.1927 14.3369 11.0703 14.2119 10.9609C14.0921 10.8464 13.9984 10.7552 13.9307 10.6875C13.79 10.5469 13.6182 10.4766 13.415 10.4766C13.2796 10.4766 13.1546 10.5156 13.04 10.5938C12.9255 10.6719 12.8109 10.7682 12.6963 10.8828C12.5817 10.9974 12.4619 11.125 12.3369 11.2656C12.2171 11.401 12.0843 11.526 11.9385 11.6406C11.7926 11.7552 11.6286 11.8516 11.4463 11.9297C11.2692 12.0078 11.0661 12.0469 10.8369 12.0469C10.6077 12.0469 10.3864 12.0052 10.1729 11.9219C9.96452 11.8333 9.77962 11.7083 9.61816 11.5469L5.31348 7.24219C5.15202 7.08073 5.02702 6.89583 4.93848 6.6875C4.85514 6.47396 4.81348 6.2526 4.81348 6.02344C4.81348 5.79427 4.85254 5.59115 4.93066 5.41406C5.00879 5.23177 5.10514 5.06771 5.21973 4.92188C5.33431 4.77604 5.45931 4.64323 5.59473 4.52344C5.73535 4.39844 5.86296 4.27865 5.97754 4.16406C6.09212 4.04948 6.18848 3.9349 6.2666 3.82031C6.34473 3.70573 6.38379 3.58073 6.38379 3.44531C6.38379 3.24219 6.31348 3.07031 6.17285 2.92969C6.10514 2.86198 6.014 2.76823 5.89941 2.64844C5.79004 2.52344 5.66764 2.39062 5.53223 2.25C5.40202 2.10417 5.26139 1.95833 5.11035 1.8125C4.96452 1.66146 4.82129 1.52604 4.68066 1.40625C4.54004 1.28646 4.40462 1.1901 4.27441 1.11719C4.14941 1.03906 4.04004 1 3.94629 1C3.74837 1 3.5791 1.07031 3.43848 1.21094C3.18848 1.46094 2.96452 1.68229 2.7666 1.875C2.57389 2.06771 2.40723 2.26562 2.2666 2.46875C2.13118 2.67188 2.02702 2.90104 1.9541 3.15625C1.88639 3.40625 1.85254 3.71615 1.85254 4.08594C1.85254 4.66927 1.94629 5.27083 2.13379 5.89062C2.3265 6.51042 2.58952 7.13021 2.92285 7.75C3.26139 8.36979 3.65983 8.98177 4.11816 9.58594C4.5765 10.1849 5.0765 10.7526 5.61816 11.2891C6.15983 11.8255 6.73014 12.3203 7.3291 12.7734C7.93327 13.2266 8.54264 13.6198 9.15723 13.9531C9.77702 14.2812 10.3916 14.5391 11.001 14.7266C11.6156 14.9089 12.2041 15 12.7666 15Z" fill="#303655"/>
</svg>
