<svg width="14" height="18" viewBox="0 0 14 18" fill="none" xmlns="http://www.w3.org/2000/svg">
<path d="M7.5625 0.0351562C8.125 0.0351562 8.66699 0.108398 9.18848 0.254883C9.70996 0.401367 10.1992 0.609375 10.6562 0.878906C11.1133 1.14844 11.5293 1.4707 11.9043 1.8457C12.2793 2.2207 12.6016 2.63672 12.8711 3.09375C13.1406 3.55078 13.3486 4.04004 13.4951 4.56152C13.6416 5.08301 13.7148 5.625 13.7148 6.1875C13.7148 6.99023 13.5596 7.7666 13.249 8.5166C12.9443 9.26074 12.5078 9.91699 11.9395 10.4854L4.58301 17.833L3.79199 17.042L11.1396 9.68555C11.6025 9.22266 11.96 8.68945 12.2119 8.08594C12.4639 7.47656 12.5898 6.84375 12.5898 6.1875C12.5898 5.50195 12.4551 4.85449 12.1855 4.24512C11.9219 3.63574 11.5615 3.10254 11.1045 2.64551C10.6475 2.18848 10.1143 1.82812 9.50488 1.56445C8.89551 1.29492 8.24805 1.16016 7.5625 1.16016C6.92969 1.16016 6.37012 1.25684 5.88379 1.4502C5.40332 1.6377 4.95801 1.88965 4.54785 2.20605C4.1377 2.5166 3.74219 2.87109 3.36133 3.26953C2.98633 3.66797 2.59082 4.07812 2.1748 4.5H5.875V5.625H0.25V0H1.375V3.7002C1.69727 3.37207 2.00488 3.05566 2.29785 2.75098C2.59668 2.44043 2.89258 2.15039 3.18555 1.88086C3.48438 1.60547 3.78613 1.35645 4.09082 1.13379C4.40137 0.905273 4.72949 0.711914 5.0752 0.553711C5.42676 0.389648 5.80469 0.263672 6.20898 0.175781C6.61914 0.0820312 7.07031 0.0351562 7.5625 0.0351562Z" fill="#737383"/>
</svg>
