<svg width="13" height="14" viewBox="0 0 13 14" fill="none" xmlns="http://www.w3.org/2000/svg">
<path d="M12.25 3.5V12.25C12.25 12.4915 12.2021 12.7194 12.1064 12.9336C12.0153 13.1432 11.89 13.3278 11.7305 13.4873C11.5755 13.6423 11.391 13.7676 11.1768 13.8633C10.9626 13.9544 10.737 14 10.5 14H2.625C2.38346 14 2.1556 13.9544 1.94141 13.8633C1.73177 13.7676 1.5472 13.6423 1.3877 13.4873C1.23275 13.3278 1.10742 13.1432 1.01172 12.9336C0.920573 12.7194 0.875 12.4915 0.875 12.25V3.5H2.625V2.625C2.625 2.26497 2.69336 1.92546 2.83008 1.60645C2.97135 1.28743 3.16048 1.00944 3.39746 0.772461C3.63444 0.535482 3.91243 0.348633 4.23145 0.211914C4.55046 0.070638 4.88997 0 5.25 0C5.72396 0 6.16374 0.11849 6.56934 0.355469C6.97493 0.11849 7.41016 0 7.875 0C8.23503 0 8.57454 0.070638 8.89355 0.211914C9.21257 0.348633 9.49056 0.535482 9.72754 0.772461C9.96452 1.00944 10.1514 1.28743 10.2881 1.60645C10.4294 1.92546 10.5 2.26497 10.5 2.625V3.5H12.25ZM9.625 2.625C9.625 2.38802 9.57715 2.16243 9.48145 1.94824C9.3903 1.73405 9.26497 1.54948 9.10547 1.39453C8.95052 1.23503 8.76595 1.1097 8.55176 1.01855C8.33757 0.922852 8.11198 0.875 7.875 0.875C7.66992 0.875 7.47624 0.90918 7.29395 0.977539C7.42611 1.1416 7.53092 1.30339 7.6084 1.46289C7.68587 1.6224 7.74284 1.7819 7.7793 1.94141C7.82031 2.10091 7.84538 2.26497 7.85449 2.43359C7.86816 2.59766 7.875 2.77083 7.875 2.95312V3.5H9.625V2.625ZM3.5 3.5H7V2.625C7 2.38802 6.95215 2.16243 6.85645 1.94824C6.7653 1.73405 6.63997 1.54948 6.48047 1.39453C6.32552 1.23503 6.14095 1.1097 5.92676 1.01855C5.71257 0.922852 5.48698 0.875 5.25 0.875C5.00846 0.875 4.7806 0.922852 4.56641 1.01855C4.35677 1.1097 4.1722 1.23503 4.0127 1.39453C3.85775 1.54948 3.73242 1.73405 3.63672 1.94824C3.54557 2.16243 3.5 2.38802 3.5 2.625V3.5ZM8.98242 13.125C8.82747 12.8516 8.75 12.5599 8.75 12.25V4.375H1.75V12.25C1.75 12.373 1.77279 12.487 1.81836 12.5918C1.86393 12.6966 1.92546 12.79 2.00293 12.8721C2.08496 12.9495 2.17839 13.0111 2.2832 13.0566C2.38802 13.1022 2.50195 13.125 2.625 13.125H8.98242ZM11.375 4.375H9.625V12.25C9.625 12.373 9.64779 12.487 9.69336 12.5918C9.73893 12.6966 9.80046 12.79 9.87793 12.8721C9.95996 12.9495 10.0534 13.0111 10.1582 13.0566C10.263 13.1022 10.377 13.125 10.5 13.125C10.623 13.125 10.737 13.1022 10.8418 13.0566C10.9466 13.0111 11.0378 12.9495 11.1152 12.8721C11.1973 12.79 11.2611 12.6966 11.3066 12.5918C11.3522 12.487 11.375 12.373 11.375 12.25V4.375Z" fill="#737383"/>
</svg>
