<svg width="14" height="14" viewBox="0 0 14 14" fill="none" xmlns="http://www.w3.org/2000/svg">
<path d="M12.25 0.875C12.373 0.875 12.487 0.897786 12.5918 0.943359C12.6966 0.988932 12.7878 1.05273 12.8652 1.13477C12.9473 1.21224 13.0111 1.30339 13.0566 1.4082C13.1022 1.51302 13.125 1.62695 13.125 1.75V12.25C13.125 12.373 13.1022 12.487 13.0566 12.5918C13.0111 12.6966 12.9473 12.79 12.8652 12.8721C12.7878 12.9495 12.6966 13.0111 12.5918 13.0566C12.487 13.1022 12.373 13.125 12.25 13.125H0.875C0.751953 13.125 0.638021 13.1022 0.533203 13.0566C0.428385 13.0111 0.334961 12.9495 0.25293 12.8721C0.175456 12.79 0.113932 12.6966 0.0683594 12.5918C0.0227865 12.487 0 12.373 0 12.25V6.125C0 6.00195 0.0227865 5.88802 0.0683594 5.7832C0.113932 5.67839 0.175456 5.58724 0.25293 5.50977C0.334961 5.42773 0.428385 5.36393 0.533203 5.31836C0.638021 5.27279 0.751953 5.25 0.875 5.25H3.5V1.75C3.5 1.62695 3.52279 1.51302 3.56836 1.4082C3.61393 1.30339 3.67546 1.21224 3.75293 1.13477C3.83496 1.05273 3.92839 0.988932 4.0332 0.943359C4.13802 0.897786 4.25195 0.875 4.375 0.875H12.25ZM3.5 12.25V6.125H0.875V12.25H3.5ZM12.25 1.75H4.375V12.25H12.25V1.75ZM2.1875 7C2.30599 7 2.40853 7.04329 2.49512 7.12988C2.58171 7.21647 2.625 7.31901 2.625 7.4375C2.625 7.55599 2.58171 7.65853 2.49512 7.74512C2.40853 7.83171 2.30599 7.875 2.1875 7.875C2.06901 7.875 1.96647 7.83171 1.87988 7.74512C1.79329 7.65853 1.75 7.55599 1.75 7.4375C1.75 7.31901 1.79329 7.21647 1.87988 7.12988C1.96647 7.04329 2.06901 7 2.1875 7ZM11.375 11.375H5.25L8.3125 5.25L11.375 11.375ZM8.3125 7.20508L7.54004 8.75H9.08496L8.3125 7.20508ZM6.66504 10.5H9.95996L9.52246 9.625H7.10254L6.66504 10.5Z" fill="#737383"/>
</svg>
