<svg width="28" height="29" viewBox="0 0 28 29" fill="none" xmlns="http://www.w3.org/2000/svg">
<path d="M28 26.3579V3.02458C28 1.73542 26.9558 0.691254 25.6667 0.691254H2.33333C1.04417 0.691254 0 1.73542 0 3.02458V26.3579C0 27.6471 1.04417 28.6912 2.33333 28.6912H25.6667C26.9558 28.6912 28 27.6471 28 26.3579ZM25.0833 18.1912H2.91667C2.59467 18.1912 2.33333 17.9299 2.33333 17.6079V11.7746C2.33333 11.4526 2.59467 11.1912 2.91667 11.1912H25.0833C25.4053 11.1912 25.6667 11.4526 25.6667 11.7746V17.6079C25.6667 17.9299 25.4053 18.1912 25.0833 18.1912ZM25.6667 3.60792V8.27462C25.6667 8.59662 25.4053 8.85792 25.0833 8.85792H2.91667C2.59467 8.85792 2.33333 8.59662 2.33333 8.27462V3.60792C2.33333 3.28592 2.59467 3.02458 2.91667 3.02458H25.0833C25.4053 3.02458 25.6667 3.28592 25.6667 3.60792ZM2.33333 25.7746V21.1079C2.33333 20.7859 2.59467 20.5246 2.91667 20.5246H25.0833C25.4053 20.5246 25.6667 20.7859 25.6667 21.1079V25.7746C25.6667 26.0966 25.4053 26.3579 25.0833 26.3579H2.91667C2.59467 26.3579 2.33333 26.0966 2.33333 25.7746Z" fill="white"/>
</svg>
