<svg width="22" height="22" viewBox="0 0 22 22" fill="none" xmlns="http://www.w3.org/2000/svg">
<path d="M20 0H2C0.89543 0 0 0.89543 0 2V20C0 21.1046 0.89543 22 2 22H20C21.1046 22 22 21.1046 22 20V2C22 0.89543 21.1046 0 20 0Z" fill="black"/>
<path d="M8.5 13.3333H12.6667L13.4167 15.1667H15.1667L11.2083 6H9.9583L6 15.1667H7.75L8.5 13.3333ZM10.5833 7.65L12.1417 11.8333H9.025L10.5833 7.65Z" fill="white"/>
</svg>
