<svg width="24" height="24" viewBox="0 0 24 24" fill="none" xmlns="http://www.w3.org/2000/svg">
<path fill-rule="evenodd" clip-rule="evenodd" d="M3 2C2.44772 2 2 2.44772 2 3V21C2 21.5523 2.44771 22 3 22H21C21.5523 22 22 21.5523 22 21V3C22 2.44771 21.5523 2 21 2H3ZM0 3C0 1.34315 1.34315 0 3 0H21C22.6569 0 24 1.34315 24 3V21C24 22.6569 22.6569 24 21 24H3C1.34315 24 0 22.6569 0 21V3Z" fill="black"/>
<path d="M9.5 14.3333H13.6667L14.4167 16.1667H16.1667L12.2083 7H10.9583L7 16.1667H8.75L9.5 14.3333ZM11.5833 8.65L13.1417 12.8333H10.025L11.5833 8.65Z" fill="black"/>
</svg>
