<svg width="23" height="23" viewBox="0 0 23 23" fill="none" xmlns="http://www.w3.org/2000/svg">
<path d="M0 10.5V0H10.5V10.5H0ZM1.5 1.5V9H9V1.5H1.5ZM0 22.5V12H10.5V22.5H0ZM1.5 13.5V21H9V13.5H1.5ZM12 22.5V12H22.5V22.5H12ZM13.5 13.5V21H21V13.5H13.5ZM12 0H22.5V10.5H12V0ZM21 9V1.5H13.5V9H21Z" fill="#333333"/>
</svg>
