<svg width="18" height="17" viewBox="0 0 18 17" fill="none" xmlns="http://www.w3.org/2000/svg">
<path d="M0 12.375V9H3.375V12.375H0ZM1.125 10.125V11.25H2.25V10.125H1.125ZM0 7.875V4.5H3.375V7.875H0ZM1.125 5.625V6.75H2.25V5.625H1.125ZM0 3.375V0H3.375V3.375H0ZM1.125 1.125V2.25H2.25V1.125H1.125ZM5.625 6.75V5.625H15.75V6.75H5.625ZM13.5 10.125V11.25H5.625V10.125H13.5ZM5.625 1.125H18V2.25H5.625V1.125ZM0 16.875V13.5H3.375V16.875H0ZM1.125 14.625V15.75H2.25V14.625H1.125ZM5.625 15.75V14.625H15.75V15.75H5.625Z" fill="#333333"/>
</svg>
