<svg width="20" height="20" viewBox="0 0 20 20" fill="none" xmlns="http://www.w3.org/2000/svg">
<path d="M2 19L18 19C18.5523 19 19 18.5523 19 18L19 2C19 1.44772 18.5523 1 18 1L2 1C1.44772 1 1 1.44772 1 2L1 18C1 18.5523 1.44772 19 2 19Z" stroke="black" stroke-width="2"/>
<path d="M17 3H13L17 7V3Z" fill="black"/>
</svg>
